hvforest
…
bw_heated<- barre_woods %>% filter(treatment == "heated") %>%  filter(datetime_combined > "2004-01-01 00:00:00")

bw_heated_avg_2003 <- bw_heated %>% group_by(datetime_combined) %>% summarise(mean_flux = mean(co2_flux))

bw_5C <- barre_woods %>% filter(treatment == "5degC") %>% filter(datetime_combined > "2004-01-01 00:00:00")

bw_5C_avg <- bw_5C %>% group_by(datetime_combined) %>% summarise(mean_flux = mean(co2_flux))

Exploratory Analysis: What does the data look like?

#first convert dataframes to tsibble and graph 
bw_control_avg

# A tibble: 48 × 2
   datetime_combined   mean_flux
   <dttm>                  <dbl>
 1 2004-04-21 06:00:00      1.13
 2 2004-04-21 14:00:00      1.31
 3 2004-05-27 06:00:00      2.82
 4 2004-05-27 14:00:00      3.22
 5 2004-06-16 06:00:00      3.19
 6 2004-06-16 14:00:00      2.93
 7 2004-07-14 06:00:00      4.21
 8 2004-07-14 14:00:00      4.59
 9 2004-08-17 06:00:00      4.42
10 2004-08-17 14:00:00      5.31
# ℹ 38 more rows
…
